<svg width="30" height="30" viewBox="0 0 30 30" fill="none" xmlns="http://www.w3.org/2000/svg">
<path d="M17.3438 2.34375C17.0203 2.34375 16.7578 2.60628 16.7578 2.92969C16.7578 3.2531 17.0203 3.51563 17.3438 3.51563C17.6672 3.51563 17.9297 3.2531 17.9297 2.92969C17.9297 2.60628 17.6672 2.34375 17.3438 2.34375Z" fill="white"/>
<path d="M28.8281 22.7179V10.3125C28.8281 9.34319 28.0396 8.55469 27.0703 8.55469H23.2031V5.85938H25.5469C26.5162 5.85938 27.3047 5.07088 27.3047 4.10156V1.75781C27.3047 0.788498 26.5162 0 25.5469 0H16.1719C15.2026 0 14.4141 0.788498 14.4141 1.75781V4.10156C14.4141 5.07088 15.2026 5.85938 16.1719 5.85938H18.5156V8.55469H12.6563V5.27344C12.6563 4.9498 12.394 4.6875 12.0703 4.6875H6.21094C5.8873 4.6875 5.625 4.9498 5.625 5.27344V8.55469H2.92969C1.96037 8.55469 1.17188 9.34319 1.17188 10.3125V22.7179C0.489807 22.9598 0 23.6112 0 24.375V28.2422C0 29.2115 0.788498 30 1.75781 30H28.2422C29.2115 30 30 29.2115 30 28.2422V24.375C30 23.6112 29.5102 22.9598 28.8281 22.7179ZM19.6875 5.85938H22.0312V8.55469H19.6875V5.85938ZM15.5859 4.10156V1.75781C15.5859 1.43463 15.8487 1.17188 16.1719 1.17188H25.5469C25.8701 1.17188 26.1328 1.43463 26.1328 1.75781V4.10156C26.1328 4.42474 25.8701 4.6875 25.5469 4.6875C24.4801 4.6875 17.6617 4.6875 16.1719 4.6875C15.8487 4.6875 15.5859 4.42474 15.5859 4.10156ZM6.79688 5.85938H11.4844V16.7578H6.79688V5.85938ZM2.34375 10.3125C2.34375 9.98932 2.60651 9.72656 2.92969 9.72656H5.625V16.7578C5.30136 16.7578 5.03906 17.0201 5.03906 17.3438C5.03906 17.6674 5.30136 17.9297 5.625 17.9297H12.6563C12.9799 17.9297 13.2422 17.6674 13.2422 17.3438C13.2422 17.0201 12.9799 16.7578 12.6563 16.7578V9.72656H27.0703C27.3935 9.72656 27.6563 9.98932 27.6563 10.3125V22.6172C26.982 22.6172 3.01804 22.6172 2.34375 22.6172V10.3125ZM10.8984 23.7891H19.1016V25.3125C19.1016 25.6357 18.8388 25.8984 18.5156 25.8984H11.4844C11.1612 25.8984 10.8984 25.6357 10.8984 25.3125V23.7891ZM28.8281 28.2422C28.8281 28.5654 28.5654 28.8281 28.2422 28.8281H1.75781C1.43463 28.8281 1.17188 28.5654 1.17188 28.2422V24.375C1.17188 24.0518 1.43463 23.7891 1.75781 23.7891H9.72656V25.3125C9.72656 26.2818 10.5151 27.0703 11.4844 27.0703H18.5156C19.4849 27.0703 20.2734 26.2818 20.2734 25.3125V23.7891H28.2422C28.5654 23.7891 28.8281 24.0518 28.8281 24.375V28.2422Z" fill="white"/>
<path d="M16.1719 16.7578H24.375C24.6986 16.7578 24.9609 16.4955 24.9609 16.1719V11.4844C24.9609 11.1607 24.6986 10.8984 24.375 10.8984H16.1719C15.8482 10.8984 15.5859 11.1607 15.5859 11.4844V16.1719C15.5859 16.4955 15.8482 16.7578 16.1719 16.7578ZM16.7578 12.0703H23.7891V15.5859H16.7578V12.0703Z" fill="white"/>
<path d="M24.375 17.9297H23.2031C22.8795 17.9297 22.6172 18.192 22.6172 18.5156C22.6172 18.8393 22.8795 19.1016 23.2031 19.1016H24.375C24.6986 19.1016 24.9609 18.8393 24.9609 18.5156C24.9609 18.192 24.6986 17.9297 24.375 17.9297Z" fill="white"/>
<path d="M20.8594 17.9297H19.6875C19.3639 17.9297 19.1016 18.192 19.1016 18.5156C19.1016 18.8393 19.3639 19.1016 19.6875 19.1016H20.8594C21.183 19.1016 21.4453 18.8393 21.4453 18.5156C21.4453 18.192 21.183 17.9297 20.8594 17.9297Z" fill="white"/>
<path d="M16.1719 19.1016H17.3438C17.6674 19.1016 17.9297 18.8393 17.9297 18.5156C17.9297 18.192 17.6674 17.9297 17.3438 17.9297H16.1719C15.8482 17.9297 15.5859 18.192 15.5859 18.5156C15.5859 18.8393 15.8482 19.1016 16.1719 19.1016Z" fill="white"/>
<path d="M24.375 20.2734H23.2031C22.8795 20.2734 22.6172 20.5357 22.6172 20.8594C22.6172 21.183 22.8795 21.4453 23.2031 21.4453H24.375C24.6986 21.4453 24.9609 21.183 24.9609 20.8594C24.9609 20.5357 24.6986 20.2734 24.375 20.2734Z" fill="white"/>
<path d="M20.8594 20.2734H19.6875C19.3639 20.2734 19.1016 20.5357 19.1016 20.8594C19.1016 21.183 19.3639 21.4453 19.6875 21.4453H20.8594C21.183 21.4453 21.4453 21.183 21.4453 20.8594C21.4453 20.5357 21.183 20.2734 20.8594 20.2734Z" fill="white"/>
<path d="M16.1719 21.4453H17.3438C17.6674 21.4453 17.9297 21.183 17.9297 20.8594C17.9297 20.5357 17.6674 20.2734 17.3438 20.2734H16.1719C15.8482 20.2734 15.5859 20.5357 15.5859 20.8594C15.5859 21.183 15.8482 21.4453 16.1719 21.4453Z" fill="white"/>
<path d="M13.2422 19.6875C13.2422 19.3639 12.9799 19.1016 12.6563 19.1016H5.625C5.30136 19.1016 5.03906 19.3639 5.03906 19.6875C5.03906 20.0111 5.30136 20.2734 5.625 20.2734H12.6563C12.9799 20.2734 13.2422 20.0111 13.2422 19.6875Z" fill="white"/>
<path d="M19.6875 3.51563H24.375C24.6986 3.51563 24.9609 3.25333 24.9609 2.92969C24.9609 2.60605 24.6986 2.34375 24.375 2.34375H19.6875C19.3639 2.34375 19.1016 2.60605 19.1016 2.92969C19.1016 3.25333 19.3639 3.51563 19.6875 3.51563Z" fill="white"/>
</svg>
