<svg width="34" height="26" viewBox="0 0 34 26" fill="none" xmlns="http://www.w3.org/2000/svg">
<path d="M0.542603 4.6689V21.3311C0.542603 23.627 2.41559 25.5 4.71151 25.5H18.1782C20.4741 25.5 22.3471 23.627 22.3471 21.3311V18.6324C22.3471 18.1759 21.9779 17.8067 21.5214 17.8067C21.0649 17.8067 20.6957 18.1759 20.6957 18.6324V21.3311C20.6957 22.7207 19.5611 23.8553 18.1715 23.8553H4.71151C3.32187 23.8553 2.18734 22.7207 2.18734 21.3311V4.6689C2.18734 3.27927 3.32187 2.14474 4.71151 2.14474H18.1782C19.5678 2.14474 20.7024 3.27927 20.7024 4.6689V7.36762C20.7024 7.82411 21.0716 8.19334 21.5281 8.19334C21.9846 8.19334 22.3538 7.82411 22.3538 7.36762V4.6689C22.3538 2.37299 20.4808 0.5 18.1849 0.5H4.71151C2.41559 0.5 0.542603 2.36627 0.542603 4.6689Z" fill="white"/>
<path d="M26.4153 19.2097C26.5764 19.3708 26.7845 19.4514 26.9993 19.4514C27.2142 19.4514 27.4223 19.3708 27.5834 19.2097L33.2158 13.5773C33.538 13.2551 33.538 12.7382 33.2158 12.416L27.5834 6.78357C27.2612 6.46133 26.7442 6.46133 26.422 6.78357C26.0998 7.1058 26.0998 7.62272 26.422 7.94495L30.6513 12.1743H15.2177C14.7612 12.1743 14.3919 12.5435 14.3919 13C14.3919 13.4565 14.7612 13.8257 15.2177 13.8257H30.6446L26.4153 18.0551C26.0931 18.3706 26.0931 18.8942 26.4153 19.2097Z" fill="white"/>
</svg>
