<?xml version="1.0" standalone="no"?>
<!DOCTYPE svg PUBLIC "-//W3C//DTD SVG 20010904//EN"
 "http://www.w3.org/TR/2001/REC-SVG-20010904/DTD/svg10.dtd">
<svg version="1.0" xmlns="http://www.w3.org/2000/svg"
 width="700.000000pt" height="700.000000pt" viewBox="0 0 700.000000 700.000000"
 preserveAspectRatio="xMidYMid meet">
<metadata>
Created by potrace 1.11, written by Peter Selinger 2001-2013
</metadata>
<g transform="translate(0.000000,700.000000) scale(0.100000,-0.100000)"
fill="#000000" stroke="none">
<path d="M1500 4460 c0 -6 81 -118 180 -250 l180 -240 700 0 c385 0 700 -3
700 -7 0 -4 -35 -53 -77 -110 l-78 -102 -538 -1 c-296 0 -537 -4 -535 -9 2 -4
84 -117 183 -249 l180 -241 355 -1 356 0 77 -104 c42 -57 77 -106 77 -110 0
-3 -157 -7 -349 -8 l-350 -3 185 -248 184 -247 352 2 353 3 83 110 c213 279
625 841 628 855 2 8 -158 229 -354 490 l-357 475 -1067 3 c-725 1 -1068 -1
-1068 -8z"/>
<path d="M3910 4461 c0 -5 156 -221 346 -481 190 -260 343 -478 341 -485 -3
-6 -159 -222 -346 -479 -188 -258 -341 -472 -341 -477 0 -5 191 -9 443 -9 410
0 445 1 460 18 8 9 169 228 356 486 227 310 339 472 333 480 -5 6 -157 214
-337 461 -181 248 -337 460 -348 473 l-20 22 -444 0 c-249 0 -443 -4 -443 -9z"/>
</g>
</svg>
